{
    "items": {
        "current_page": 1,
        "data": [
            {
                "tradeDate": 1730995200,
                "nav": 12.1515,
                "change": 0.1281,
                "changePercent": 1.06542
            },
            {
                "tradeDate": 1730908800,
                "nav": 12.0234,
                "change": 0.0393,
                "changePercent": 0.32793
            },
            {
                "tradeDate": 1730822400,
                "nav": 11.9841,
                "change": 0.0767,
                "changePercent": 0.64414
            },
            {
                "tradeDate": 1730736000,
                "nav": 11.9074,
                "change": 0.1454,
                "changePercent": 1.23618
            },
            {
                "tradeDate": 1730390400,
                "nav": 11.762,
                "change": -0.2862,
                "changePercent": -2.37546
            },
            {
                "tradeDate": 1730304000,
                "nav": 12.0482,
                "change": 0.0334,
                "changePercent": 0.27799
            },
            {
                "tradeDate": 1730217600,
                "nav": 12.0148,
                "change": 0.0236,
                "changePercent": 0.19681
            },
            {
                "tradeDate": 1730131200,
                "nav": 11.9912,
                "change": 0.3277,
                "changePercent": 2.80962
            },
            {
                "tradeDate": 1729785600,
                "nav": 11.6635,
                "change": -0.1768,
                "changePercent": -1.49321
            },
            {
                "tradeDate": 1729699200,
                "nav": 11.8403,
                "change": 0.0049,
                "changePercent": 0.0414
            }
        ],
        "first_page_url": "/fund/api/v1/funds/B610022/nav?format=table&page=1&isVendor=0&userFrom=anue",
        "from": 1,
        "last_page": 68,
        "last_page_url": "/fund/api/v1/funds/B610022/nav?format=table&page=68&isVendor=0&userFrom=anue",
        "next_page_url": "/fund/api/v1/funds/B610022/nav?format=table&page=2&isVendor=0&userFrom=anue",
        "path": "/fund/api/v1/funds/B610022/nav",
        "per_page": 10,
        "prev_page_url": null,
        "to": 10,
        "total": 680
    },
    "message": "成功",
    "statusCode": 200
}